{
    "properties": [], 
    "methods": [
        {
            "modifiers": [
                "STATIC"
            ], 
            "name": "createObject", 
            "parameters": [], 
            "visibility": "PUBLIC", 
            "references": [], 
            "location": {
                "column": 21, 
                "line": 38
            }, 
            "returnType": "void", 
            "type": null
        }, 
        {
            "modifiers": [
                "STATIC"
            ], 
            "name": "upsertObject", 
            "parameters": [], 
            "visibility": "PUBLIC", 
            "references": [], 
            "location": {
                "column": 21, 
                "line": 56
            }, 
            "returnType": "void", 
            "type": null
        }, 
        {
            "modifiers": [
                "STATIC"
            ], 
            "name": "createLookupField", 
            "parameters": [], 
            "visibility": "PUBLIC", 
            "references": [], 
            "location": {
                "column": 21, 
                "line": 74
            }, 
            "returnType": "void", 
            "type": null
        }, 
        {
            "modifiers": [
                "STATIC"
            ], 
            "name": "createExternalField", 
            "parameters": [], 
            "visibility": "PUBLIC", 
            "references": [], 
            "location": {
                "column": 21, 
                "line": 90
            }, 
            "returnType": "void", 
            "type": null
        }, 
        {
            "modifiers": [
                "STATIC"
            ], 
            "name": "createLongTextAreaField", 
            "parameters": [], 
            "visibility": "PUBLIC", 
            "references": [], 
            "location": {
                "column": 21, 
                "line": 105
            }, 
            "returnType": "void", 
            "type": null
        }, 
        {
            "modifiers": [
                "STATIC"
            ], 
            "name": "createField", 
            "parameters": [], 
            "visibility": "PUBLIC", 
            "references": [], 
            "location": {
                "column": 21, 
                "line": 120
            }, 
            "returnType": "void", 
            "type": null
        }, 
        {
            "modifiers": [
                "STATIC"
            ], 
            "name": "createField", 
            "parameters": [
                {
                    "type": "String", 
                    "name": "fullName"
                }, 
                {
                    "type": "String", 
                    "name": "label"
                }, 
                {
                    "type": "String", 
                    "name": "type"
                }, 
                {
                    "type": "Integer", 
                    "name": "length"
                }
            ], 
            "visibility": "PUBLIC", 
            "references": [], 
            "location": {
                "column": 47, 
                "line": 134
            }, 
            "returnType": "CustomField", 
            "type": null
        }, 
        {
            "modifiers": [
                "STATIC"
            ], 
            "name": "deleteField", 
            "parameters": [], 
            "visibility": "PUBLIC", 
            "references": [], 
            "location": {
                "column": 21, 
                "line": 147
            }, 
            "returnType": "void", 
            "type": null
        }, 
        {
            "modifiers": [
                "STATIC"
            ], 
            "name": "updateField", 
            "parameters": [], 
            "visibility": "PUBLIC", 
            "references": [], 
            "location": {
                "column": 21, 
                "line": 156
            }, 
            "returnType": "void", 
            "type": null
        }, 
        {
            "modifiers": [
                "STATIC"
            ], 
            "name": "updateFieldLevelSecurity", 
            "parameters": [], 
            "visibility": "PUBLIC", 
            "references": [], 
            "location": {
                "column": 24, 
                "line": 170
            }, 
            "returnType": "void", 
            "type": null
        }, 
        {
            "modifiers": [
                "STATIC"
            ], 
            "name": "createPage", 
            "parameters": [], 
            "visibility": "PUBLIC", 
            "references": [], 
            "location": {
                "column": 21, 
                "line": 184
            }, 
            "returnType": "void", 
            "type": null
        }, 
        {
            "modifiers": [
                "STATIC"
            ], 
            "name": "createStaticResource", 
            "parameters": [], 
            "visibility": "PUBLIC", 
            "references": [], 
            "location": {
                "column": 21, 
                "line": 198
            }, 
            "returnType": "void", 
            "type": null
        }, 
        {
            "modifiers": [
                "STATIC"
            ], 
            "name": "updateStaticResource", 
            "parameters": [], 
            "visibility": "PUBLIC", 
            "references": [], 
            "location": {
                "column": 21, 
                "line": 212
            }, 
            "returnType": "void", 
            "type": null
        }, 
        {
            "modifiers": [
                "STATIC"
            ], 
            "name": "deleteStaticResource", 
            "parameters": [], 
            "visibility": "PUBLIC", 
            "references": [], 
            "location": {
                "column": 21, 
                "line": 226
            }, 
            "returnType": "void", 
            "type": null
        }, 
        {
            "modifiers": [
                "STATIC"
            ], 
            "name": "createWebLink", 
            "parameters": [], 
            "visibility": "PUBLIC", 
            "references": [], 
            "location": {
                "column": 21, 
                "line": 235
            }, 
            "returnType": "void", 
            "type": null
        }, 
        {
            "modifiers": [
                "STATIC"
            ], 
            "name": "listMetadata", 
            "parameters": [], 
            "visibility": "PUBLIC", 
            "references": [], 
            "location": {
                "column": 21, 
                "line": 263
            }, 
            "returnType": "void", 
            "type": null
        }, 
        {
            "modifiers": [
                "STATIC"
            ], 
            "name": "createPicklistField", 
            "parameters": [], 
            "visibility": "PUBLIC", 
            "references": [], 
            "location": {
                "column": 21, 
                "line": 281
            }, 
            "returnType": "void", 
            "type": null
        }, 
        {
            "modifiers": [
                "STATIC"
            ], 
            "name": "updatePicklistField", 
            "parameters": [], 
            "visibility": "PUBLIC", 
            "references": [], 
            "location": {
                "column": 21, 
                "line": 301
            }, 
            "returnType": "void", 
            "type": null
        }, 
        {
            "modifiers": [
                "STATIC"
            ], 
            "name": "createAddressSettings", 
            "parameters": [], 
            "visibility": "PUBLIC", 
            "references": [], 
            "location": {
                "column": 21, 
                "line": 327
            }, 
            "returnType": "void", 
            "type": null
        }, 
        {
            "modifiers": [
                "STATIC"
            ], 
            "name": "updateCaseSettings", 
            "parameters": [], 
            "visibility": "PUBLIC", 
            "references": [], 
            "location": {
                "column": 21, 
                "line": 356
            }, 
            "returnType": "void", 
            "type": null
        }, 
        {
            "modifiers": [
                "STATIC"
            ], 
            "name": "dynamicCreation", 
            "parameters": [
                {
                    "type": "String", 
                    "name": "objectName"
                }
            ], 
            "visibility": "PUBLIC", 
            "references": [], 
            "location": {
                "column": 21, 
                "line": 368
            }, 
            "returnType": "void", 
            "type": null
        }, 
        {
            "modifiers": [
                "STATIC"
            ], 
            "name": "createRecordType", 
            "parameters": [], 
            "visibility": "PUBLIC", 
            "references": [], 
            "location": {
                "column": 21, 
                "line": 423
            }, 
            "returnType": "void", 
            "type": null
        }, 
        {
            "modifiers": [
                "STATIC"
            ], 
            "name": "deleteRecordType", 
            "parameters": [], 
            "visibility": "PUBLIC", 
            "references": [], 
            "location": {
                "column": 21, 
                "line": 439
            }, 
            "returnType": "void", 
            "type": null
        }, 
        {
            "modifiers": [
                "STATIC"
            ], 
            "name": "installPackages", 
            "parameters": [], 
            "visibility": "PUBLIC", 
            "references": [], 
            "location": {
                "column": 21, 
                "line": 455
            }, 
            "returnType": "void", 
            "type": null
        }, 
        {
            "modifiers": [
                "STATIC"
            ], 
            "name": "uninstallPackages", 
            "parameters": [], 
            "visibility": "PUBLIC", 
            "references": [], 
            "location": {
                "column": 21, 
                "line": 475
            }, 
            "returnType": "void", 
            "type": null
        }, 
        {
            "modifiers": [
                "STATIC"
            ], 
            "name": "createCustomSite", 
            "parameters": [], 
            "visibility": "PUBLIC", 
            "references": [], 
            "location": {
                "column": 21, 
                "line": 486
            }, 
            "returnType": "void", 
            "type": null
        }, 
        {
            "modifiers": [
                "STATIC"
            ], 
            "name": "createDetailObject", 
            "parameters": [], 
            "visibility": "PUBLIC", 
            "references": [], 
            "location": {
                "column": 21, 
                "line": 525
            }, 
            "returnType": "void", 
            "type": null
        }, 
        {
            "modifiers": [
                "STATIC"
            ], 
            "name": "createFieldSet", 
            "parameters": [], 
            "visibility": "PUBLIC", 
            "references": [], 
            "location": {
                "column": 21, 
                "line": 576
            }, 
            "returnType": "void", 
            "type": null
        }, 
        {
            "modifiers": [
                "STATIC"
            ], 
            "name": "updateFieldSet", 
            "parameters": [], 
            "visibility": "PUBLIC", 
            "references": [], 
            "location": {
                "column": 21, 
                "line": 599
            }, 
            "returnType": "void", 
            "type": null
        }, 
        {
            "modifiers": [
                "STATIC"
            ], 
            "name": "addActionOverride", 
            "parameters": [], 
            "visibility": "PUBLIC", 
            "references": [], 
            "location": {
                "column": 21, 
                "line": 627
            }, 
            "returnType": "void", 
            "type": null
        }, 
        {
            "modifiers": [
                "STATIC"
            ], 
            "name": "createListView", 
            "parameters": [], 
            "visibility": "PUBLIC", 
            "references": [], 
            "location": {
                "column": 21, 
                "line": 652
            }, 
            "returnType": "void", 
            "type": null
        }, 
        {
            "modifiers": [
                "STATIC"
            ], 
            "name": "deleteListView", 
            "parameters": [], 
            "visibility": "PUBLIC", 
            "references": [], 
            "location": {
                "column": 21, 
                "line": 666
            }, 
            "returnType": "void", 
            "type": null
        }, 
        {
            "modifiers": [
                "STATIC"
            ], 
            "name": "listListViews", 
            "parameters": [], 
            "visibility": "PUBLIC", 
            "references": [], 
            "location": {
                "column": 21, 
                "line": 675
            }, 
            "returnType": "void", 
            "type": null
        }, 
        {
            "modifiers": [
                "STATIC"
            ], 
            "name": "readListView", 
            "parameters": [], 
            "visibility": "PUBLIC", 
            "references": [], 
            "location": {
                "column": 21, 
                "line": 687
            }, 
            "returnType": "void", 
            "type": null
        }, 
        {
            "modifiers": [
                "STATIC"
            ], 
            "name": "createApprovalProcess", 
            "parameters": [], 
            "visibility": "PUBLIC", 
            "references": [], 
            "location": {
                "column": 21, 
                "line": 703
            }, 
            "returnType": "void", 
            "type": null
        }, 
        {
            "modifiers": [
                "STATIC"
            ], 
            "name": "readAndUpdateLayout", 
            "parameters": [], 
            "visibility": "PUBLIC", 
            "references": [], 
            "location": {
                "column": 21, 
                "line": 726
            }, 
            "returnType": "void", 
            "type": null
        }, 
        {
            "modifiers": [
                "STATIC"
            ], 
            "name": "addFieldToLayout", 
            "parameters": [], 
            "visibility": "PUBLIC", 
            "references": [], 
            "location": {
                "column": 21, 
                "line": 771
            }, 
            "returnType": "void", 
            "type": null
        }, 
        {
            "modifiers": [
                "STATIC"
            ], 
            "name": "updatePicklist", 
            "parameters": [], 
            "visibility": "PUBLIC", 
            "references": [], 
            "location": {
                "column": 21, 
                "line": 798
            }, 
            "returnType": "void", 
            "type": null
        }, 
        {
            "modifiers": [
                "STATIC"
            ], 
            "name": "copyLayoutSection", 
            "parameters": [], 
            "visibility": "PUBLIC", 
            "references": [], 
            "location": {
                "column": 21, 
                "line": 823
            }, 
            "returnType": "void", 
            "type": null
        }, 
        {
            "modifiers": [
                "STATIC"
            ], 
            "name": "readWorkflowAlert", 
            "parameters": [], 
            "visibility": "PUBLIC", 
            "references": [], 
            "location": {
                "column": 21, 
                "line": 847
            }, 
            "returnType": "void", 
            "type": null
        }, 
        {
            "modifiers": [
                "STATIC"
            ], 
            "name": "readCustomObject", 
            "parameters": [], 
            "visibility": "PUBLIC", 
            "references": [], 
            "location": {
                "column": 21, 
                "line": 859
            }, 
            "returnType": "void", 
            "type": null
        }, 
        {
            "modifiers": [
                "STATIC"
            ], 
            "name": "addComponentsToHomePageLayout", 
            "parameters": [], 
            "visibility": "PUBLIC", 
            "references": [], 
            "location": {
                "column": 21, 
                "line": 870
            }, 
            "returnType": "void", 
            "type": null
        }, 
        {
            "modifiers": [
                "STATIC"
            ], 
            "name": "readFolder", 
            "parameters": [], 
            "visibility": "PUBLIC", 
            "references": [], 
            "location": {
                "column": 21, 
                "line": 898
            }, 
            "returnType": "void", 
            "type": null
        }, 
        {
            "modifiers": [
                "STATIC"
            ], 
            "name": "createService", 
            "parameters": [], 
            "visibility": "PUBLIC", 
            "references": [], 
            "location": {
                "column": 45, 
                "line": 912
            }, 
            "returnType": "MetadataPort", 
            "type": null
        }, 
        {
            "modifiers": [
                "STATIC"
            ], 
            "name": "handleSaveResults", 
            "parameters": [
                {
                    "type": "SaveResult", 
                    "name": "saveResult"
                }
            ], 
            "visibility": "PRIVATE", 
            "references": [], 
            "location": {
                "column": 22, 
                "line": 923
            }, 
            "returnType": "void", 
            "type": null
        }, 
        {
            "modifiers": [
                "STATIC"
            ], 
            "name": "handleDeleteResults", 
            "parameters": [
                {
                    "type": "DeleteResult", 
                    "name": "deleteResult"
                }
            ], 
            "visibility": "PRIVATE", 
            "references": [], 
            "location": {
                "column": 22, 
                "line": 945
            }, 
            "returnType": "void", 
            "type": null
        }, 
        {
            "modifiers": [
                "STATIC"
            ], 
            "name": "handleUpsertResults", 
            "parameters": [
                {
                    "type": "UpsertResult", 
                    "name": "upsertResult"
                }
            ], 
            "visibility": "PRIVATE", 
            "references": [], 
            "location": {
                "column": 22, 
                "line": 967
            }, 
            "returnType": "void", 
            "type": null
        }
    ], 
    "innerClasses": [
        {
            "properties": [], 
            "methods": [], 
            "innerClasses": [], 
            "variables": [], 
            "constructors": [], 
            "namespace": null, 
            "name": "MetadataServiceExamplesException", 
            "tableDeclaration": {
                "type": "MetadataServiceExamplesException", 
                "modifiers": [], 
                "references": [], 
                "location": {
                    "column": 15, 
                    "line": 910
                }, 
                "name": "MetadataServiceExamplesException"
            }, 
            "key": null, 
            "id": null, 
            "externalReferences": []
        }
    ], 
    "variables": [
        {
            "type": "MetadataPort", 
            "modifiers": [], 
            "references": [], 
            "location": {
                "column": 32, 
                "line": 40
            }, 
            "name": "service"
        }, 
        {
            "type": "CustomObject", 
            "modifiers": [], 
            "references": [], 
            "location": {
                "column": 32, 
                "line": 41
            }, 
            "name": "customObject"
        }, 
        {
            "type": "LIST", 
            "modifiers": [], 
            "references": [], 
            "location": {
                "column": 36, 
                "line": 50
            }, 
            "name": "results"
        }, 
        {
            "type": "MetadataPort", 
            "modifiers": [], 
            "references": [], 
            "location": {
                "column": 32, 
                "line": 58
            }, 
            "name": "service"
        }, 
        {
            "type": "CustomObject", 
            "modifiers": [], 
            "references": [], 
            "location": {
                "column": 32, 
                "line": 59
            }, 
            "name": "customObject"
        }, 
        {
            "type": "LIST", 
            "modifiers": [], 
            "references": [], 
            "location": {
                "column": 38, 
                "line": 68
            }, 
            "name": "results"
        }, 
        {
            "type": "MetadataPort", 
            "modifiers": [], 
            "references": [], 
            "location": {
                "column": 32, 
                "line": 76
            }, 
            "name": "service"
        }, 
        {
            "type": "CustomField", 
            "modifiers": [], 
            "references": [], 
            "location": {
                "column": 31, 
                "line": 77
            }, 
            "name": "customField"
        }, 
        {
            "type": "LIST", 
            "modifiers": [], 
            "references": [], 
            "location": {
                "column": 36, 
                "line": 84
            }, 
            "name": "results"
        }, 
        {
            "type": "MetadataPort", 
            "modifiers": [], 
            "references": [], 
            "location": {
                "column": 32, 
                "line": 92
            }, 
            "name": "service"
        }, 
        {
            "type": "CustomField", 
            "modifiers": [], 
            "references": [], 
            "location": {
                "column": 31, 
                "line": 93
            }, 
            "name": "customField"
        }, 
        {
            "type": "LIST", 
            "modifiers": [], 
            "references": [], 
            "location": {
                "column": 36, 
                "line": 99
            }, 
            "name": "results"
        }, 
        {
            "type": "MetadataPort", 
            "modifiers": [], 
            "references": [], 
            "location": {
                "column": 32, 
                "line": 107
            }, 
            "name": "service"
        }, 
        {
            "type": "CustomField", 
            "modifiers": [], 
            "references": [], 
            "location": {
                "column": 31, 
                "line": 108
            }, 
            "name": "customField"
        }, 
        {
            "type": "LIST", 
            "modifiers": [], 
            "references": [], 
            "location": {
                "column": 36, 
                "line": 114
            }, 
            "name": "results"
        }, 
        {
            "type": "MetadataPort", 
            "modifiers": [], 
            "references": [], 
            "location": {
                "column": 32, 
                "line": 122
            }, 
            "name": "service"
        }, 
        {
            "type": "CustomField", 
            "modifiers": [], 
            "references": [], 
            "location": {
                "column": 31, 
                "line": 123
            }, 
            "name": "customField"
        }, 
        {
            "type": "LIST", 
            "modifiers": [], 
            "references": [], 
            "location": {
                "column": 36, 
                "line": 128
            }, 
            "name": "results"
        }, 
        {
            "type": "String", 
            "modifiers": [], 
            "references": [], 
            "location": {
                "column": 66, 
                "line": 134
            }, 
            "name": "fullName"
        }, 
        {
            "type": "String", 
            "modifiers": [], 
            "references": [], 
            "location": {
                "column": 83, 
                "line": 134
            }, 
            "name": "label"
        }, 
        {
            "type": "String", 
            "modifiers": [], 
            "references": [], 
            "location": {
                "column": 97, 
                "line": 134
            }, 
            "name": "type"
        }, 
        {
            "type": "Integer", 
            "modifiers": [], 
            "references": [], 
            "location": {
                "column": 111, 
                "line": 134
            }, 
            "name": "length"
        }, 
        {
            "type": "MetadataPort", 
            "modifiers": [], 
            "references": [], 
            "location": {
                "column": 32, 
                "line": 136
            }, 
            "name": "service"
        }, 
        {
            "type": "CustomField", 
            "modifiers": [], 
            "references": [], 
            "location": {
                "column": 31, 
                "line": 137
            }, 
            "name": "customField"
        }, 
        {
            "type": "MetadataPort", 
            "modifiers": [], 
            "references": [], 
            "location": {
                "column": 32, 
                "line": 149
            }, 
            "name": "service"
        }, 
        {
            "type": "LIST", 
            "modifiers": [], 
            "references": [], 
            "location": {
                "column": 38, 
                "line": 150
            }, 
            "name": "results"
        }, 
        {
            "type": "MetadataPort", 
            "modifiers": [], 
            "references": [], 
            "location": {
                "column": 35, 
                "line": 158
            }, 
            "name": "service"
        }, 
        {
            "type": "CustomField", 
            "modifiers": [], 
            "references": [], 
            "location": {
                "column": 34, 
                "line": 159
            }, 
            "name": "customField"
        }, 
        {
            "type": "LIST", 
            "modifiers": [], 
            "references": [], 
            "location": {
                "column": 36, 
                "line": 164
            }, 
            "name": "results"
        }, 
        {
            "type": "MetadataPort", 
            "modifiers": [], 
            "references": [], 
            "location": {
                "column": 38, 
                "line": 172
            }, 
            "name": "service"
        }, 
        {
            "type": "Profile", 
            "modifiers": [], 
            "references": [], 
            "location": {
                "column": 33, 
                "line": 173
            }, 
            "name": "admin"
        }, 
        {
            "type": "ProfileFieldLevelSecurity", 
            "modifiers": [], 
            "references": [], 
            "location": {
                "column": 51, 
                "line": 174
            }, 
            "name": "fieldSec"
        }, 
        {
            "type": "LIST", 
            "modifiers": [], 
            "references": [], 
            "location": {
                "column": 36, 
                "line": 178
            }, 
            "name": "results"
        }, 
        {
            "type": "MetadataPort", 
            "modifiers": [], 
            "references": [], 
            "location": {
                "column": 32, 
                "line": 186
            }, 
            "name": "service"
        }, 
        {
            "type": "ApexPage", 
            "modifiers": [], 
            "references": [], 
            "location": {
                "column": 28, 
                "line": 187
            }, 
            "name": "apexPage"
        }, 
        {
            "type": "LIST", 
            "modifiers": [], 
            "references": [], 
            "location": {
                "column": 36, 
                "line": 192
            }, 
            "name": "results"
        }, 
        {
            "type": "MetadataPort", 
            "modifiers": [], 
            "references": [], 
            "location": {
                "column": 32, 
                "line": 200
            }, 
            "name": "service"
        }, 
        {
            "type": "StaticResource", 
            "modifiers": [], 
            "references": [], 
            "location": {
                "column": 34, 
                "line": 201
            }, 
            "name": "staticResource"
        }, 
        {
            "type": "LIST", 
            "modifiers": [], 
            "references": [], 
            "location": {
                "column": 36, 
                "line": 206
            }, 
            "name": "results"
        }, 
        {
            "type": "MetadataPort", 
            "modifiers": [], 
            "references": [], 
            "location": {
                "column": 32, 
                "line": 214
            }, 
            "name": "service"
        }, 
        {
            "type": "StaticResource", 
            "modifiers": [], 
            "references": [], 
            "location": {
                "column": 34, 
                "line": 215
            }, 
            "name": "staticResource"
        }, 
        {
            "type": "LIST", 
            "modifiers": [], 
            "references": [], 
            "location": {
                "column": 36, 
                "line": 220
            }, 
            "name": "results"
        }, 
        {
            "type": "MetadataPort", 
            "modifiers": [], 
            "references": [], 
            "location": {
                "column": 32, 
                "line": 228
            }, 
            "name": "service"
        }, 
        {
            "type": "LIST", 
            "modifiers": [], 
            "references": [], 
            "location": {
                "column": 38, 
                "line": 229
            }, 
            "name": "results"
        }, 
        {
            "type": "MetadataPort", 
            "modifiers": [], 
            "references": [], 
            "location": {
                "column": 32, 
                "line": 237
            }, 
            "name": "service"
        }, 
        {
            "type": "WebLink", 
            "modifiers": [], 
            "references": [], 
            "location": {
                "column": 27, 
                "line": 238
            }, 
            "name": "webLink"
        }, 
        {
            "type": "LIST", 
            "modifiers": [], 
            "references": [], 
            "location": {
                "column": 36, 
                "line": 257
            }, 
            "name": "results"
        }, 
        {
            "type": "MetadataPort", 
            "modifiers": [], 
            "references": [], 
            "location": {
                "column": 32, 
                "line": 265
            }, 
            "name": "service"
        }, 
        {
            "type": "LIST", 
            "modifiers": [], 
            "references": [], 
            "location": {
                "column": 43, 
                "line": 266
            }, 
            "name": "queries"
        }, 
        {
            "type": "ListMetadataQuery", 
            "modifiers": [], 
            "references": [], 
            "location": {
                "column": 37, 
                "line": 267
            }, 
            "name": "queryWorkflow"
        }, 
        {
            "type": "ListMetadataQuery", 
            "modifiers": [], 
            "references": [], 
            "location": {
                "column": 37, 
                "line": 270
            }, 
            "name": "queryValidationRule"
        }, 
        {
            "type": "ListMetadataQuery", 
            "modifiers": [], 
            "references": [], 
            "location": {
                "column": 37, 
                "line": 273
            }, 
            "name": "queryCustomField"
        }, 
        {
            "type": "LIST", 
            "modifiers": [], 
            "references": [], 
            "location": {
                "column": 36, 
                "line": 276
            }, 
            "name": "fileProperties"
        }, 
        {
            "type": "FileProperties", 
            "modifiers": [], 
            "references": [], 
            "location": {
                "column": 38, 
                "line": 277
            }, 
            "name": "fileProperty"
        }, 
        {
            "type": "MetadataPort", 
            "modifiers": [], 
            "references": [], 
            "location": {
                "column": 35, 
                "line": 283
            }, 
            "name": "service"
        }, 
        {
            "type": "CustomField", 
            "modifiers": [], 
            "references": [], 
            "location": {
                "column": 34, 
                "line": 284
            }, 
            "name": "customField"
        }, 
        {
            "type": "Picklist", 
            "modifiers": [], 
            "references": [], 
            "location": {
                "column": 31, 
                "line": 288
            }, 
            "name": "pt"
        }, 
        {
            "type": "PicklistValue", 
            "modifiers": [], 
            "references": [], 
            "location": {
                "column": 36, 
                "line": 290
            }, 
            "name": "one"
        }, 
        {
            "type": "LIST", 
            "modifiers": [], 
            "references": [], 
            "location": {
                "column": 36, 
                "line": 295
            }, 
            "name": "results"
        }, 
        {
            "type": "MetadataPort", 
            "modifiers": [], 
            "references": [], 
            "location": {
                "column": 35, 
                "line": 303
            }, 
            "name": "service"
        }, 
        {
            "type": "CustomField", 
            "modifiers": [], 
            "references": [], 
            "location": {
                "column": 34, 
                "line": 304
            }, 
            "name": "customField"
        }, 
        {
            "type": "Picklist", 
            "modifiers": [], 
            "references": [], 
            "location": {
                "column": 31, 
                "line": 308
            }, 
            "name": "pt"
        }, 
        {
            "type": "PicklistValue", 
            "modifiers": [], 
            "references": [], 
            "location": {
                "column": 36, 
                "line": 310
            }, 
            "name": "two"
        }, 
        {
            "type": "PicklistValue", 
            "modifiers": [], 
            "references": [], 
            "location": {
                "column": 36, 
                "line": 313
            }, 
            "name": "three"
        }, 
        {
            "type": "UpdateMetadata", 
            "modifiers": [], 
            "references": [], 
            "location": {
                "column": 37, 
                "line": 318
            }, 
            "name": "ut"
        }, 
        {
            "type": "LIST", 
            "modifiers": [], 
            "references": [], 
            "location": {
                "column": 36, 
                "line": 321
            }, 
            "name": "results"
        }, 
        {
            "type": "MetadataPort", 
            "modifiers": [], 
            "references": [], 
            "location": {
                "column": 35, 
                "line": 329
            }, 
            "name": "service"
        }, 
        {
            "type": "AddressSettings", 
            "modifiers": [], 
            "references": [], 
            "location": {
                "column": 38, 
                "line": 330
            }, 
            "name": "addressSettings"
        }, 
        {
            "type": "Country", 
            "modifiers": [], 
            "references": [], 
            "location": {
                "column": 27, 
                "line": 333
            }, 
            "name": "us"
        }, 
        {
            "type": "State", 
            "modifiers": [], 
            "references": [], 
            "location": {
                "column": 25, 
                "line": 338
            }, 
            "name": "stateAL"
        }, 
        {
            "type": "State", 
            "modifiers": [], 
            "references": [], 
            "location": {
                "column": 25, 
                "line": 343
            }, 
            "name": "stateAK"
        }, 
        {
            "type": "LIST", 
            "modifiers": [], 
            "references": [], 
            "location": {
                "column": 36, 
                "line": 350
            }, 
            "name": "results"
        }, 
        {
            "type": "MetadataPort", 
            "modifiers": [], 
            "references": [], 
            "location": {
                "column": 35, 
                "line": 358
            }, 
            "name": "service"
        }, 
        {
            "type": "CaseSettings", 
            "modifiers": [], 
            "references": [], 
            "location": {
                "column": 35, 
                "line": 359
            }, 
            "name": "caseSettings"
        }, 
        {
            "type": "LIST", 
            "modifiers": [], 
            "references": [], 
            "location": {
                "column": 36, 
                "line": 362
            }, 
            "name": "results"
        }, 
        {
            "type": "String", 
            "modifiers": [], 
            "references": [], 
            "location": {
                "column": 44, 
                "line": 368
            }, 
            "name": "objectName"
        }, 
        {
            "type": "CustomObject", 
            "modifiers": [], 
            "references": [], 
            "location": {
                "column": 32, 
                "line": 371
            }, 
            "name": "customObject"
        }, 
        {
            "type": "CustomField", 
            "modifiers": [], 
            "references": [], 
            "location": {
                "column": 31, 
                "line": 382
            }, 
            "name": "customField1"
        }, 
        {
            "type": "CustomField", 
            "modifiers": [], 
            "references": [], 
            "location": {
                "column": 31, 
                "line": 389
            }, 
            "name": "customField2"
        }, 
        {
            "type": "ApexPage", 
            "modifiers": [], 
            "references": [], 
            "location": {
                "column": 28, 
                "line": 396
            }, 
            "name": "apexPage"
        }, 
        {
            "type": "MetadataPort", 
            "modifiers": [], 
            "references": [], 
            "location": {
                "column": 35, 
                "line": 407
            }, 
            "name": "service"
        }, 
        {
            "type": "LIST", 
            "modifiers": [], 
            "references": [], 
            "location": {
                "column": 36, 
                "line": 408
            }, 
            "name": "results"
        }, 
        {
            "type": "RecordType", 
            "modifiers": [], 
            "references": [], 
            "location": {
                "column": 30, 
                "line": 425
            }, 
            "name": "recordType"
        }, 
        {
            "type": "MetadataPort", 
            "modifiers": [], 
            "references": [], 
            "location": {
                "column": 35, 
                "line": 432
            }, 
            "name": "service"
        }, 
        {
            "type": "LIST", 
            "modifiers": [], 
            "references": [], 
            "location": {
                "column": 36, 
                "line": 433
            }, 
            "name": "results"
        }, 
        {
            "type": "RecordType", 
            "modifiers": [], 
            "references": [], 
            "location": {
                "column": 30, 
                "line": 445
            }, 
            "name": "recordType"
        }, 
        {
            "type": "MetadataPort", 
            "modifiers": [], 
            "references": [], 
            "location": {
                "column": 35, 
                "line": 448
            }, 
            "name": "service"
        }, 
        {
            "type": "LIST", 
            "modifiers": [], 
            "references": [], 
            "location": {
                "column": 38, 
                "line": 449
            }, 
            "name": "results"
        }, 
        {
            "type": "InstalledPackage", 
            "modifiers": [], 
            "references": [], 
            "location": {
                "column": 36, 
                "line": 458
            }, 
            "name": "installedPackageA"
        }, 
        {
            "type": "InstalledPackage", 
            "modifiers": [], 
            "references": [], 
            "location": {
                "column": 36, 
                "line": 462
            }, 
            "name": "installedPackageB"
        }, 
        {
            "type": "MetadataPort", 
            "modifiers": [], 
            "references": [], 
            "location": {
                "column": 35, 
                "line": 467
            }, 
            "name": "service"
        }, 
        {
            "type": "LIST", 
            "modifiers": [], 
            "references": [], 
            "location": {
                "column": 36, 
                "line": 468
            }, 
            "name": "results"
        }, 
        {
            "type": "MetadataPort", 
            "modifiers": [], 
            "references": [], 
            "location": {
                "column": 35, 
                "line": 478
            }, 
            "name": "service"
        }, 
        {
            "type": "LIST", 
            "modifiers": [], 
            "references": [], 
            "location": {
                "column": 38, 
                "line": 479
            }, 
            "name": "results"
        }, 
        {
            "type": "CustomSite", 
            "modifiers": [], 
            "references": [], 
            "location": {
                "column": 30, 
                "line": 488
            }, 
            "name": "customSite"
        }, 
        {
            "type": "MetadataPort", 
            "modifiers": [], 
            "references": [], 
            "location": {
                "column": 35, 
                "line": 518
            }, 
            "name": "service"
        }, 
        {
            "type": "LIST", 
            "modifiers": [], 
            "references": [], 
            "location": {
                "column": 36, 
                "line": 519
            }, 
            "name": "results"
        }, 
        {
            "type": "CustomObject", 
            "modifiers": [], 
            "references": [], 
            "location": {
                "column": 32, 
                "line": 528
            }, 
            "name": "customObject"
        }, 
        {
            "type": "CustomField", 
            "modifiers": [], 
            "references": [], 
            "location": {
                "column": 31, 
                "line": 539
            }, 
            "name": "customField1"
        }, 
        {
            "type": "CustomField", 
            "modifiers": [], 
            "references": [], 
            "location": {
                "column": 31, 
                "line": 552
            }, 
            "name": "customField2"
        }, 
        {
            "type": "MetadataPort", 
            "modifiers": [], 
            "references": [], 
            "location": {
                "column": 35, 
                "line": 564
            }, 
            "name": "service"
        }, 
        {
            "type": "LIST", 
            "modifiers": [], 
            "references": [], 
            "location": {
                "column": 36, 
                "line": 565
            }, 
            "name": "results"
        }, 
        {
            "type": "MetadataPort", 
            "modifiers": [], 
            "references": [], 
            "location": {
                "column": 32, 
                "line": 578
            }, 
            "name": "service"
        }, 
        {
            "type": "FieldSet", 
            "modifiers": [], 
            "references": [], 
            "location": {
                "column": 28, 
                "line": 581
            }, 
            "name": "fieldSet"
        }, 
        {
            "type": "FieldSetItem", 
            "modifiers": [], 
            "references": [], 
            "location": {
                "column": 32, 
                "line": 585
            }, 
            "name": "myAvailableField"
        }, 
        {
            "type": "LIST", 
            "modifiers": [], 
            "references": [], 
            "location": {
                "column": 36, 
                "line": 593
            }, 
            "name": "results"
        }, 
        {
            "type": "MetadataPort", 
            "modifiers": [], 
            "references": [], 
            "location": {
                "column": 32, 
                "line": 601
            }, 
            "name": "service"
        }, 
        {
            "type": "FieldSet", 
            "modifiers": [], 
            "references": [], 
            "location": {
                "column": 28, 
                "line": 604
            }, 
            "name": "fieldSet"
        }, 
        {
            "type": "FieldSetItem", 
            "modifiers": [], 
            "references": [], 
            "location": {
                "column": 32, 
                "line": 608
            }, 
            "name": "myAvailableField"
        }, 
        {
            "type": "FieldSetItem", 
            "modifiers": [], 
            "references": [], 
            "location": {
                "column": 32, 
                "line": 612
            }, 
            "name": "myAvailableFieldNew"
        }, 
        {
            "type": "LIST", 
            "modifiers": [], 
            "references": [], 
            "location": {
                "column": 36, 
                "line": 621
            }, 
            "name": "results"
        }, 
        {
            "type": "MetadataPort", 
            "modifiers": [], 
            "references": [], 
            "location": {
                "column": 32, 
                "line": 629
            }, 
            "name": "service"
        }, 
        {
            "type": "CustomObject", 
            "modifiers": [], 
            "references": [], 
            "location": {
                "column": 32, 
                "line": 630
            }, 
            "name": "customObject"
        }, 
        {
            "type": "LIST", 
            "modifiers": [], 
            "references": [], 
            "location": {
                "column": 36, 
                "line": 646
            }, 
            "name": "results"
        }, 
        {
            "type": "MetadataPort", 
            "modifiers": [], 
            "references": [], 
            "location": {
                "column": 32, 
                "line": 654
            }, 
            "name": "service"
        }, 
        {
            "type": "ListView", 
            "modifiers": [], 
            "references": [], 
            "location": {
                "column": 28, 
                "line": 655
            }, 
            "name": "listView"
        }, 
        {
            "type": "LIST", 
            "modifiers": [], 
            "references": [], 
            "location": {
                "column": 36, 
                "line": 660
            }, 
            "name": "results"
        }, 
        {
            "type": "MetadataPort", 
            "modifiers": [], 
            "references": [], 
            "location": {
                "column": 32, 
                "line": 668
            }, 
            "name": "service"
        }, 
        {
            "type": "LIST", 
            "modifiers": [], 
            "references": [], 
            "location": {
                "column": 38, 
                "line": 669
            }, 
            "name": "results"
        }, 
        {
            "type": "MetadataPort", 
            "modifiers": [], 
            "references": [], 
            "location": {
                "column": 32, 
                "line": 677
            }, 
            "name": "service"
        }, 
        {
            "type": "LIST", 
            "modifiers": [], 
            "references": [], 
            "location": {
                "column": 43, 
                "line": 678
            }, 
            "name": "queries"
        }, 
        {
            "type": "ListMetadataQuery", 
            "modifiers": [], 
            "references": [], 
            "location": {
                "column": 37, 
                "line": 679
            }, 
            "name": "listView"
        }, 
        {
            "type": "LIST", 
            "modifiers": [], 
            "references": [], 
            "location": {
                "column": 36, 
                "line": 682
            }, 
            "name": "fileProperties"
        }, 
        {
            "type": "FileProperties", 
            "modifiers": [], 
            "references": [], 
            "location": {
                "column": 38, 
                "line": 683
            }, 
            "name": "fileProperty"
        }, 
        {
            "type": "MetadataPort", 
            "modifiers": [], 
            "references": [], 
            "location": {
                "column": 35, 
                "line": 689
            }, 
            "name": "service"
        }, 
        {
            "type": "ListView", 
            "modifiers": [], 
            "references": [], 
            "location": {
                "column": 31, 
                "line": 692
            }, 
            "name": "listView"
        }, 
        {
            "type": "String", 
            "modifiers": [], 
            "references": [], 
            "location": {
                "column": 15, 
                "line": 696
            }, 
            "name": "column"
        }, 
        {
            "type": "ListViewFilter", 
            "modifiers": [], 
            "references": [], 
            "location": {
                "column": 39, 
                "line": 699
            }, 
            "name": "filter"
        }, 
        {
            "type": "MetadataPort", 
            "modifiers": [], 
            "references": [], 
            "location": {
                "column": 32, 
                "line": 705
            }, 
            "name": "service"
        }, 
        {
            "type": "ApprovalProcess", 
            "modifiers": [], 
            "references": [], 
            "location": {
                "column": 35, 
                "line": 706
            }, 
            "name": "approvalProcess"
        }, 
        {
            "type": "ApprovalSubmitter", 
            "modifiers": [], 
            "references": [], 
            "location": {
                "column": 43, 
                "line": 716
            }, 
            "name": "submitter"
        }, 
        {
            "type": "LIST", 
            "modifiers": [], 
            "references": [], 
            "location": {
                "column": 36, 
                "line": 720
            }, 
            "name": "results"
        }, 
        {
            "type": "MetadataPort", 
            "modifiers": [], 
            "references": [], 
            "location": {
                "column": 32, 
                "line": 728
            }, 
            "name": "service"
        }, 
        {
            "type": "WebLink", 
            "modifiers": [], 
            "references": [], 
            "location": {
                "column": 27, 
                "line": 731
            }, 
            "name": "webLink"
        }, 
        {
            "type": "Layout", 
            "modifiers": [], 
            "references": [], 
            "location": {
                "column": 26, 
                "line": 755
            }, 
            "name": "layout"
        }, 
        {
            "type": "MetadataPort", 
            "modifiers": [], 
            "references": [], 
            "location": {
                "column": 32, 
                "line": 773
            }, 
            "name": "service"
        }, 
        {
            "type": "Layout", 
            "modifiers": [], 
            "references": [], 
            "location": {
                "column": 26, 
                "line": 776
            }, 
            "name": "layout"
        }, 
        {
            "type": "LayoutSection", 
            "modifiers": [], 
            "references": [], 
            "location": {
                "column": 33, 
                "line": 783
            }, 
            "name": "newLayoutSection"
        }, 
        {
            "type": "LayoutColumn", 
            "modifiers": [], 
            "references": [], 
            "location": {
                "column": 32, 
                "line": 785
            }, 
            "name": "newLayoutColumn"
        }, 
        {
            "type": "LayoutItem", 
            "modifiers": [], 
            "references": [], 
            "location": {
                "column": 30, 
                "line": 786
            }, 
            "name": "newLayoutItem"
        }, 
        {
            "type": "MetadataPort", 
            "modifiers": [], 
            "references": [], 
            "location": {
                "column": 35, 
                "line": 800
            }, 
            "name": "service"
        }, 
        {
            "type": "CustomField", 
            "modifiers": [], 
            "references": [], 
            "location": {
                "column": 34, 
                "line": 803
            }, 
            "name": "customField"
        }, 
        {
            "type": "PicklistValue", 
            "modifiers": [], 
            "references": [], 
            "location": {
                "column": 36, 
                "line": 808
            }, 
            "name": "two"
        }, 
        {
            "type": "PicklistValue", 
            "modifiers": [], 
            "references": [], 
            "location": {
                "column": 36, 
                "line": 811
            }, 
            "name": "three"
        }, 
        {
            "type": "MetadataPort", 
            "modifiers": [], 
            "references": [], 
            "location": {
                "column": 35, 
                "line": 825
            }, 
            "name": "service"
        }, 
        {
            "type": "Layout", 
            "modifiers": [], 
            "references": [], 
            "location": {
                "column": 26, 
                "line": 828
            }, 
            "name": "sourceLayout"
        }, 
        {
            "type": "Layout", 
            "modifiers": [], 
            "references": [], 
            "location": {
                "column": 26, 
                "line": 833
            }, 
            "name": "targetLayout"
        }, 
        {
            "type": "MetadataPort", 
            "modifiers": [], 
            "references": [], 
            "location": {
                "column": 32, 
                "line": 849
            }, 
            "name": "service"
        }, 
        {
            "type": "WorkflowAlert", 
            "modifiers": [], 
            "references": [], 
            "location": {
                "column": 33, 
                "line": 852
            }, 
            "name": "wfa"
        }, 
        {
            "type": "MetadataPort", 
            "modifiers": [], 
            "references": [], 
            "location": {
                "column": 32, 
                "line": 861
            }, 
            "name": "service"
        }, 
        {
            "type": "CustomObject", 
            "modifiers": [], 
            "references": [], 
            "location": {
                "column": 32, 
                "line": 863
            }, 
            "name": "customObject"
        }, 
        {
            "type": "CustomField", 
            "modifiers": [], 
            "references": [], 
            "location": {
                "column": 35, 
                "line": 866
            }, 
            "name": "field"
        }, 
        {
            "type": "MetadataPort", 
            "modifiers": [], 
            "references": [], 
            "location": {
                "column": 32, 
                "line": 873
            }, 
            "name": "service"
        }, 
        {
            "type": "HomePageLayout", 
            "modifiers": [], 
            "references": [], 
            "location": {
                "column": 34, 
                "line": 874
            }, 
            "name": "homePageLayout"
        }, 
        {
            "type": "HomePageComponent", 
            "modifiers": [], 
            "references": [], 
            "location": {
                "column": 37, 
                "line": 879
            }, 
            "name": "homePageComponent"
        }, 
        {
            "type": "MetadataPort", 
            "modifiers": [], 
            "references": [], 
            "location": {
                "column": 32, 
                "line": 901
            }, 
            "name": "service"
        }, 
        {
            "type": "ReportFolder", 
            "modifiers": [], 
            "references": [], 
            "location": {
                "column": 32, 
                "line": 902
            }, 
            "name": "folder"
        }, 
        {
            "type": "SharedTo", 
            "modifiers": [], 
            "references": [], 
            "location": {
                "column": 28, 
                "line": 905
            }, 
            "name": "shareTo"
        }, 
        {
            "type": "String", 
            "modifiers": [], 
            "references": [], 
            "location": {
                "column": 14, 
                "line": 906
            }, 
            "name": "groupName"
        }, 
        {
            "type": "MetadataPort", 
            "modifiers": [], 
            "references": [], 
            "location": {
                "column": 32, 
                "line": 914
            }, 
            "name": "service"
        }, 
        {
            "type": "SaveResult", 
            "modifiers": [], 
            "references": [], 
            "location": {
                "column": 67, 
                "line": 923
            }, 
            "name": "saveResult"
        }, 
        {
            "type": "LIST", 
            "modifiers": [], 
            "references": [], 
            "location": {
                "column": 16, 
                "line": 929
            }, 
            "name": "messages"
        }, 
        {
            "type": "Error", 
            "modifiers": [], 
            "references": [], 
            "location": {
                "column": 29, 
                "line": 933
            }, 
            "name": "error"
        }, 
        {
            "type": "DeleteResult", 
            "modifiers": [], 
            "references": [], 
            "location": {
                "column": 71, 
                "line": 945
            }, 
            "name": "deleteResult"
        }, 
        {
            "type": "LIST", 
            "modifiers": [], 
            "references": [], 
            "location": {
                "column": 16, 
                "line": 951
            }, 
            "name": "messages"
        }, 
        {
            "type": "Error", 
            "modifiers": [], 
            "references": [], 
            "location": {
                "column": 29, 
                "line": 955
            }, 
            "name": "error"
        }, 
        {
            "type": "UpsertResult", 
            "modifiers": [], 
            "references": [], 
            "location": {
                "column": 71, 
                "line": 967
            }, 
            "name": "upsertResult"
        }, 
        {
            "type": "LIST", 
            "modifiers": [], 
            "references": [], 
            "location": {
                "column": 16, 
                "line": 973
            }, 
            "name": "messages"
        }, 
        {
            "type": "Error", 
            "modifiers": [], 
            "references": [], 
            "location": {
                "column": 29, 
                "line": 977
            }, 
            "name": "error"
        }
    ], 
    "constructors": [], 
    "namespace": null, 
    "name": "MetadataServiceExamples", 
    "tableDeclaration": {
        "type": "MetadataServiceExamples", 
        "modifiers": [], 
        "references": [], 
        "location": {
            "column": 27, 
            "line": 36
        }, 
        "name": "MetadataServiceExamples"
    }, 
    "key": "01pO0000000BZxZIAW", 
    "id": "01pO0000000BZxZIAW", 
    "externalReferences": []
}